{
  "users": [
    {
      "email": "filipe@mail.com",
      "password": "$2a$10$eFmCPmPsaWpbymqbn5R/iOtIVLIhKi4kqvkZv2HYVQT7Z7IgpvXdO",
      "name": "Filipe",
      "age": 27,
      "id": 1
    },
    {
      "email": "olivier@mail.com",
      "password": "bestPassw0rd",
      "id": 2
    },
    {
      "email": "teste@mail.com",
      "password": "12345",
      "id": 3
    },
    {
      "email": "testes@mail.com",
      "password": "$2a$10$mwJNIFJjuiOSs.nzBrsJ.O4Q1Qikgq0rRk6oDIPW8pq6DW.PmVh.m",
      "id": 4
    }
  ],
  "products": [
    {
      "name": "mouse",
      "password": "bestPassw0rd",
      "price": 5,
      "userId": 2,
      "id": 1
    },
    {
      "name": "mouse",
      "password": "bestPassw0rd",
      "price": 5,
      "userId": 2,
      "id": 2
    },
    {
      "name": "mouse",
      "password": "bestPassw0rd",
      "price": 5,
      "userId": 2,
      "id": 3
    },
    {
      "name": "mouse",
      "password": "bestPassw0rd",
      "price": 5,
      "userId": 4,
      "id": 4
    },
    {
      "name": "teclado",
      "price": 5,
      "userId": 4,
      "categoru": "C",
      "id": 5
    },
    {
      "name": "teclado",
      "price": 5,
      "userId": 4,
      "categoru": "C",
      "id": 6
    },
    {
      "name": "teclado",
      "price": 5,
      "userId": 4,
      "categoru": "C",
      "id": 7
    }
  ]
}